{
    "id":1,
    "nick":"Ivan",
    "time_added":1589389285.626899,
    "features":{
        "region":"us",
        "skill_global":[1244,341],
        "skill_ladder":[455,124],
        "games_played":760,
        "cpu":185,
        "faction":"aeon"        
    }
}